^C:\USERS\FRANCO\DOCUMENTS\MDF\ENGINE\RELEASE\ANIMATION.OBJ|C:\USERS\FRANCO\DOCUMENTS\MDF\ENGINE\RELEASE\DIRECTINPUT.OBJ|C:\USERS\FRANCO\DOCUMENTS\MDF\ENGINE\RELEASE\ENGINE.OBJ|C:\USERS\FRANCO\DOCUMENTS\MDF\ENGINE\RELEASE\ENTITY2D.OBJ|C:\USERS\FRANCO\DOCUMENTS\MDF\ENGINE\RELEASE\GAME.OBJ|C:\USERS\FRANCO\DOCUMENTS\MDF\ENGINE\RELEASE\INPUT.OBJ|C:\USERS\FRANCO\DOCUMENTS\MDF\ENGINE\RELEASE\QUAD.OBJ|C:\USERS\FRANCO\DOCUMENTS\MDF\ENGINE\RELEASE\RENDERER.OBJ|C:\USERS\FRANCO\DOCUMENTS\MDF\ENGINE\RELEASE\SPRITE.OBJ|C:\USERS\FRANCO\DOCUMENTS\MDF\ENGINE\RELEASE\TIMER.OBJ|C:\USERS\FRANCO\DOCUMENTS\MDF\ENGINE\RELEASE\VERTEXBUFFER.OBJ|C:\USERS\FRANCO\DOCUMENTS\MDF\ENGINE\RELEASE\WINDOW.OBJ
C:\PROGRAM FILES (X86)\MICROSOFT DIRECTX SDK (JUNE 2010)\LIB\X64\D3DX9.LIB
C:\PROGRAM FILES (X86)\MICROSOFT DIRECTX SDK (JUNE 2010)\LIB\X86\D3DX9.LIB
C:\PROGRAM FILES (X86)\WINDOWS KITS\8.1\LIB\WINV6.3\UM\X86\KERNEL32.LIB
C:\PROGRAM FILES (X86)\WINDOWS KITS\8.1\LIB\WINV6.3\UM\X86\USER32.LIB
C:\PROGRAM FILES (X86)\WINDOWS KITS\8.1\LIB\WINV6.3\UM\X86\GDI32.LIB
C:\PROGRAM FILES (X86)\WINDOWS KITS\8.1\LIB\WINV6.3\UM\X86\WINSPOOL.LIB
C:\PROGRAM FILES (X86)\WINDOWS KITS\8.1\LIB\WINV6.3\UM\X86\COMDLG32.LIB
C:\PROGRAM FILES (X86)\WINDOWS KITS\8.1\LIB\WINV6.3\UM\X86\ADVAPI32.LIB
C:\PROGRAM FILES (X86)\WINDOWS KITS\8.1\LIB\WINV6.3\UM\X86\SHELL32.LIB
C:\PROGRAM FILES (X86)\WINDOWS KITS\8.1\LIB\WINV6.3\UM\X86\OLE32.LIB
C:\PROGRAM FILES (X86)\WINDOWS KITS\8.1\LIB\WINV6.3\UM\X86\OLEAUT32.LIB
C:\PROGRAM FILES (X86)\WINDOWS KITS\8.1\LIB\WINV6.3\UM\X86\UUID.LIB
C:\PROGRAM FILES (X86)\WINDOWS KITS\8.1\LIB\WINV6.3\UM\X86\ODBC32.LIB
C:\PROGRAM FILES (X86)\WINDOWS KITS\8.1\LIB\WINV6.3\UM\X86\ODBCCP32.LIB
C:\USERS\FRANCO\DOCUMENTS\MDF\ENGINE\RELEASE\ANIMATION.OBJ
C:\USERS\FRANCO\DOCUMENTS\MDF\ENGINE\RELEASE\DIRECTINPUT.OBJ
C:\USERS\FRANCO\DOCUMENTS\MDF\ENGINE\RELEASE\ENGINE.OBJ
C:\USERS\FRANCO\DOCUMENTS\MDF\ENGINE\RELEASE\ENTITY2D.OBJ
C:\USERS\FRANCO\DOCUMENTS\MDF\ENGINE\RELEASE\GAME.OBJ
C:\USERS\FRANCO\DOCUMENTS\MDF\ENGINE\RELEASE\INPUT.OBJ
C:\USERS\FRANCO\DOCUMENTS\MDF\ENGINE\RELEASE\QUAD.OBJ
C:\USERS\FRANCO\DOCUMENTS\MDF\ENGINE\RELEASE\SPRITE.OBJ
C:\USERS\FRANCO\DOCUMENTS\MDF\ENGINE\RELEASE\TIMER.OBJ
C:\USERS\FRANCO\DOCUMENTS\MDF\ENGINE\RELEASE\VERTEXBUFFER.OBJ
C:\USERS\FRANCO\DOCUMENTS\MDF\ENGINE\RELEASE\WINDOW.OBJ
C:\USERS\FRANCO\DOCUMENTS\MDF\ENGINE\RELEASE\RENDERER.OBJ
C:\WINDOWS\GLOBALIZATION\SORTING\SORTDEFAULT.NLS
C:\PROGRAM FILES (X86)\MICROSOFT VISUAL STUDIO 12.0\VC\BIN\C2.DLL
C:\PROGRAM FILES (X86)\MICROSOFT VISUAL STUDIO 12.0\VC\LIB\MSVCPRT.LIB
C:\PROGRAM FILES (X86)\MICROSOFT VISUAL STUDIO 12.0\VC\LIB\MSVCRT.LIB
C:\PROGRAM FILES (X86)\MICROSOFT VISUAL STUDIO 12.0\VC\LIB\OLDNAMES.LIB
C:\PROGRAM FILES (X86)\WINDOWS KITS\8.1\LIB\WINV6.3\UM\X86\DINPUT8.LIB
C:\PROGRAM FILES (X86)\WINDOWS KITS\8.1\LIB\WINV6.3\UM\X86\DXGUID.LIB
C:\PROGRAM FILES (X86)\WINDOWS KITS\8.1\LIB\WINV6.3\UM\X86\D3D9.LIB
C:\WINDOWS\SYSTEM32\TZRES.DLL
C:\PROGRAM FILES (X86)\MICROSOFT VISUAL STUDIO 12.0\VC\BIN\1033\LINKUI.DLL
C:\PROGRAM FILES (X86)\WINDOWS KITS\8.1\BIN\X86\RC.EXE
C:\PROGRAM FILES (X86)\MICROSOFT VISUAL STUDIO 12.0\VC\BIN\CVTRES.EXE
