^D:\USUARIOS\SEVEN\DESKTOP\IMAGECAMPUS-2DOAÑO\GRAFICOS\ULTIMAVERSIONENGINE\VERSIONSOURCE\ENGINE\MAIN.CPP|D:\USUARIOS\SEVEN\DESKTOP\IMAGECAMPUS-2DOAÑO\GRAFICOS\ULTIMAVERSIONENGINE\VERSIONSOURCE\ENGINE\TESTGAME.CPP
D:\USUARIOS\SEVEN\DESKTOP\IMAGECAMPUS-2DOAñO\GRAFICOS\ULTIMAVERSIONENGINE\VERSIONSOURCE\VENTANA\DEBUG\VC120.PDB
D:\USUARIOS\SEVEN\DESKTOP\IMAGECAMPUS-2DOAñO\GRAFICOS\ULTIMAVERSIONENGINE\VERSIONSOURCE\VENTANA\DEBUG\VC120.IDB
D:\USUARIOS\SEVEN\DESKTOP\IMAGECAMPUS-2DOAÑO\GRAFICOS\ULTIMAVERSIONENGINE\VERSIONSOURCE\VENTANA\DEBUG\TESTGAME.OBJ
D:\USUARIOS\SEVEN\DESKTOP\IMAGECAMPUS-2DOAÑO\GRAFICOS\ULTIMAVERSIONENGINE\VERSIONSOURCE\VENTANA\DEBUG\MAIN.OBJ
^D:\USUARIOS\SEVEN\DESKTOP\IMAGECAMPUS-2DOAÑO\GRAFICOS\ULTIMAVERSIONENGINE\VERSIONSOURCE\ENGINE\MAIN.CPP
D:\USUARIOS\SEVEN\DESKTOP\IMAGECAMPUS-2DOAÑO\GRAFICOS\ULTIMAVERSIONENGINE\VERSIONSOURCE\VENTANA\DEBUG\VC120.PDB
^D:\USUARIOS\SEVEN\DESKTOP\IMAGECAMPUS-2DOAÑO\GRAFICOS\ULTIMAVERSIONENGINE\VERSIONSOURCE\ENGINE\TESTGAME.CPP
D:\USUARIOS\SEVEN\DESKTOP\IMAGECAMPUS-2DOAÑO\GRAFICOS\ULTIMAVERSIONENGINE\VERSIONSOURCE\VENTANA\DEBUG\VC120.PDB
